id;datedebut;datefin;heuredebut;heurefin;pointsfidelite
1;2021-03-21;2021-03-21;16215;55564;88609
2;2021-03-21;2021-03-21;29683;83813;73060
3;2021-03-21;2021-03-21;97545;42697;38038
4;2021-03-21;2021-03-21;62565;22787;89179
5;2021-03-20;2021-03-21;59850;83566;43405
6;2021-03-21;2021-03-21;67440;74057;70763
7;2021-03-21;2021-03-21;9409;83577;54746
8;2021-03-21;2021-03-21;46284;81139;48905
9;2021-03-21;2021-03-21;27832;19873;92016
10;2021-03-21;2021-03-20;1878;94553;7483
