id;datereglement;montant;codepaiement;modereglement
1;2021-03-21T02:26:49;25276;Representative Indian Rupee;Triple-buffered primary
2;2021-03-21T03:26:13;20217;Avon;purple
3;2021-03-21T12:37:37;99008;unleash Strategist;digital override
4;2021-03-21T00:14:21;34513;Agent compelling XSS;Inverse
5;2021-03-21T15:25:36;48449;calculating;Corporate
6;2021-03-21T02:39:11;67711;Jamaican Dollar web-enabled Internal;Keyboard Division
7;2021-03-21T18:14:18;4406;well-modulated;Sleek Fresh Tuna
8;2021-03-21T17:20:14;57252;Oregon e-tailers;Tasty
9;2021-03-21T06:58:33;59798;Cambridgeshire;EXE Colorado El Salvador Colon US Dollar
10;2021-03-21T12:10:53;20499;Vermont model;CSS Personal Loan Account
