id;libelle
1;Money Market Account online
2;Devolved
3;cross-media Multi-tiered intermediate
4;overriding deposit Lead
5;Internal Infrastructure
6;European Unit of Account 9(E.U.A.-9) Fundamental
7;invoice neural-net streamline
8;copy Tactics
9;infomediaries Wooden
10;Cambridgeshire global
