{
  "fluentMethods": true,
  "clientRootFolder": "",
  "relationships": [],
  "fields": [
    {
      "fieldName": "telephone",
      "fieldType": "String"
    },
    {
      "fieldName": "adresse",
      "fieldType": "String"
    }
  ],
  "changelogDate": "20210326114130",
  "dto": "no",
  "searchEngine": false,
  "service": "serviceClass",
  "entityTableName": "application_user",
  "databaseType": "sql",
  "readOnly": false,
  "jpaMetamodelFiltering": false,
  "pagination": "pagination"
}
