{
  "fluentMethods": true,
  "clientRootFolder": "",
  "relationships": [
    {
      "relationshipName": "user",
      "otherEntityName": "user",
      "relationshipType": "one-to-one",
      "otherEntityField": "login",
      "ownerSide": true,
      "useJPADerivedIdentifier": false,
      "otherEntityRelationshipName": "client"
    }
  ],
  "fields": [
    {
      "fieldName": "prenom",
      "fieldType": "String"
    },
    {
      "fieldName": "nom",
      "fieldType": "String"
    },
    {
      "fieldName": "datenaissance",
      "fieldType": "LocalDate"
    },
    {
      "fieldName": "lieunaissance",
      "fieldType": "String"
    },
    {
      "fieldName": "cni",
      "fieldType": "String"
    },
    {
      "fieldName": "telephone",
      "fieldType": "String"
    },
    {
      "fieldName": "email",
      "fieldType": "String"
    },
    {
      "fieldName": "sexe",
      "fieldType": "String"
    },
    {
      "fieldName": "adresse",
      "fieldType": "String"
    }
  ],
  "changelogDate": "20210321221711",
  "dto": "no",
  "searchEngine": false,
  "service": "serviceClass",
  "entityTableName": "client",
  "databaseType": "sql",
  "readOnly": false,
  "jpaMetamodelFiltering": false,
  "pagination": "pagination"
}
