{
  "fluentMethods": true,
  "clientRootFolder": "",
  "relationships": [
    {
      "relationshipName": "remise",
      "otherEntityName": "remise",
      "relationshipType": "many-to-one",
      "otherEntityField": "libelle",
      "otherEntityRelationshipName": "evenement"
    }
  ],
  "fields": [
    {
      "fieldName": "libelle",
      "fieldType": "String"
    },
    {
      "fieldName": "etat",
      "fieldType": "String"
    }
  ],
  "changelogDate": "20210321220450",
  "dto": "no",
  "searchEngine": false,
  "service": "serviceClass",
  "entityTableName": "evenement",
  "databaseType": "sql",
  "readOnly": false,
  "jpaMetamodelFiltering": false,
  "pagination": "pagination"
}
