{
  "fluentMethods": true,
  "clientRootFolder": "",
  "relationships": [],
  "fields": [
    {
      "fieldName": "libelle",
      "fieldType": "String",
      "fieldValidateRules": ["required", "unique"]
    }
  ],
  "changelogDate": "20210321213521",
  "dto": "no",
  "searchEngine": false,
  "service": "serviceClass",
  "entityTableName": "typelieu",
  "databaseType": "sql",
  "readOnly": false,
  "jpaMetamodelFiltering": false,
  "pagination": "pagination"
}
